{
  "routes": "config/routes.json",
  "staticDir": "web/",
  "controllerDir": "controller/",
  "layout.html": "controller/layout.html",
  "user": {
    "sessionCookieName": "tn_session_id",
    "sessionCookieDomain": "localhost",
    "sessionCookiePath": "/",
    "sessionCookieSecure": false
  }
}
